<?xml version="1.0" encoding="UTF-8"?>
<testng-results ignored="0" total="0" passed="0" failed="0" skipped="0">
  <reporter-output>
  </reporter-output>
  <suite started-at="2020-10-03T19:08:07Z" name="com.epam.test.ht12.tests.UserTest" finished-at="2020-10-03T19:08:07Z" duration-ms="8">
    <groups>
    </groups>
    <test started-at="2020-10-03T19:08:07Z" name="Command line test" finished-at="2020-10-03T19:08:07Z" duration-ms="8">
    </test> <!-- Command line test -->
  </suite> <!-- com.epam.test.ht12.tests.UserTest -->
</testng-results>
